#FPGA  LTDB_CH  CHIP   ERNI_Pin EMB_SC Fiber
 1   0       1   JS1.A29    8A_F1          3
 1   1       1   JS1.A30    8A_F2          3
 1   2       1   JS1.A31    8A_F3          3
 1   3       1   JS1.A32    8A_F4          3
 1   4       1   JS1.A28    7A_F4          3
 1   5       1   JS1.A30    7A_F2          3
 1   6       1   JS1.A29    7A_F3          3
 1   7       1   JS1.A31    7A_F1          3
 1   8       2   JS1.B24    6A_F4          4
 1   9       2   JS1.B22    6A_F2          4
 1  10       2   JS1.B23    6A_F3          4
 1  11       2   JS1.B21    6A_F1          4
 1  12       2   JS1.A23    5A_F1          4
 1  13       2   JS1.A21    5A_F3          4
 1  14       2   JS1.A22    5A_F2          4
 1  15       2   JS1.A20    5A_F4          4
 1  16       3   JS1.B18    7A_P1          5
 1  17       3   JS1.B19    8A_P1          5
 1  18       3   JS1.B17    6A_P1          5
 1  19       3   JS1.B16    5A_P1          5
 1  20       3   JS1.A17    3A_P1          5
 1  21       3   JS1.A18    4A_P1          5
 1  22       3   JS1.A15    1A_P1          5
 1  23       3   JS1.A16    2A_P1          5
 1  24       4   JS1.A4     1A_F2          6
 1  25       4   JS1.A5     1A_F1          6
 1  26       4   JS1.A2     1A_F4          6
 1  27       4   JS1.A3     1A_F3          6
 1  28       4   JS1.B5     2A_F3          6
 1  29       4   JS1.B6     2A_F4          6
 1  30       4   JS1.B3     2A_F1          6
 1  31       4   JS1.B4     2A_F2          6
 1  32       5   JS1.B13    4A_F3          7
 1  33       5   JS1.B14    4A_F4          7
 1  34       5   JS1.B11    4A_F1          7
 1  35       5   JS1.B12    4A_F2          7
 1  36       5   JS1.A12    3A_F2          7
 1  37       5   JS1.A13    3A_F1          7
 1  38       5   JS1.A10    3A_F4          7
 1  39       5   JS1.A11    3A_F3          7
 1  40       6   JS1.D2     GND            8
 1  41       6   JS1.D4     GND            8
 1  42       6   JS1.D3     GND            8
 1  43       6   JS1.D5     GND            8
 1  44       6   JS1.E3     GND            8
 1  45       6   JS1.E4     GND            8
 1  46       6   JS1.E5     GND            8
 1  47       6   JS1.E6     GND            8
 1  48       7   JS1.D13    14A_M4         9
 1  49       7   JS1.D11    14A_M2         9
 1  50       7   JS1.D12    14A_M3         9
 1  51       7   JS1.D10    14A_M1         9
 1  52       7   JS1.E14    13A_M4         9
 1  53       7   JS1.E12    13A_M2         9
 1  54       7   JS1.E13    13A_M3         9
 1  55       7   JS1.E11    13A_M1         9
 1  56       8   JS1.D17    9A_M3         10
 1  57       8   JS1.D18    9A_M4         10
 1  58       8   JS1.D15    9A_M1         10
 1  59       8   JS1.D16    9A_M2         10
 1  60       8   JS1.E19    10A_M4        10
 1  61       8   JS1.E18    10A_M3        10
 1  62       8   JS1.E16    10A_M1        10
 1  63       8   JS1.E17    10A_M2        10
 1  64       9   JS1.E31    6A_M3         11
 1  65       9   JS1.E32    6A_M4         11
 1  66       9   JS1.E29    6A_M1         11
 1  67       9   JS1.E30    6A_M2         11
 1  68       9   JS1.D30    5A_M3         11
 1  69       9   JS1.D31    5A_M4         11
 1  70       9   JS1.D28    5A_M1         11
 1  71       9   JS1.D29    5A_M2         11
 1  72      10   JS1.D25    11A_M3        12
 1  73      10   JS1.D26    11A_M4        12
 1  74      10   JS1.D23    11A_M1        12
 1  75      10   JS1.D24    11A_M2        12
 1  76      10   JS1.E26    12A_M3        12
 1  77      10   JS1.E27    12A_M4        12
 1  78      10 JS1.E24      12A_M1        12
 1  79      10 JS1.E25      12A_M2        12            
 2   80     11   JS1.E43    8A_M4          1
 2   81     11   JS1.E42    8A_M3          1
 2   82     11   JS1.E41    8A_M2          1
 2   83     11   JS1.E40    8A_M1          1
 2   84     11   JS1.D42    7A_M4          1
 2   85     11   JS1.D40    7A_M2          1
 2   86     11   JS1.D41    7A_M3          1
 2   87     11   JS1.D39    7A_M1          1
 2   88     12   JS1.E45    3A_M1          2
 2   89     12   JS2.E3     3A_M3          2
 2   90     12   JS1.E46    3A_M2          2
 2   91     12   JS2.E4     3A_M4          2
 2   92     12   JS1.D44    4A_M1          2
 2   93     12   JS2.D2     4A_M3          2
 2   94     12   JS1.D45    4A_M2          2
 2   95     12   JS2.D3     4A_M4          2
 2   96     13   JS2.E10    1A_M2          3
 2   97     13   JS2.E9     1A_M1          3
 2   98     13   JS2.E11    1A_M3          3
 2   99     13   JS2.E12    1A_M4          3
 2  100     13   JS2.D9     2A_M2          3
 2  101     13   JS2.D8     2A_M1          3
 2  102     13   JS2.D11    2A_M4          3
 2  103     13   JS2.D10    2A_M3          3
 2  104     14   JS2.D19    10A_B1         4
 2  105     14   JS2.D18    9A_B1          4
 2  106     14   JS2.D21    12A_B1         4
 2  107     14   JS2.D20    11A_B1         4
 2  108     14   JS2.E20    14A_B1         4
 2  109     14   JS2.E19    13A_B1         4
 2  110     14   JS2.E22    GND            4
 2  111     14   JS2.E21    GND            4
 2  112     15   JS2.E15    6A_B1          5
 2  113     15   JS2.E14    5A_B1          5
 2  114     15   JS2.E17    8A_B1          5
 2  115     15   JS2.E16    7A_B1          5
 2  116     15   JS2.D14    2A_B1          5
 2  117     15   JS2.D13    1A_B1          5
 2  118     15   JS2.D16    4A_B1          5
 2  119     15   JS2.D15    3A_B1          5
 2  120     16   JS2.A21    GND            6
 2  121     16   JS2.A19    GND            6
 2  122     16   JS2.A20    GND            6
 2  123     16   JS2.A18    GND            6
 2  124     16   JS2.B22    15A_B4         6
 2  125     16   JS2.B21    15A_B3         6
 2  126     16   JS2.B20    15A_B2         6
 2  127     16   JS2.B19    15A_B1         6
 2  128     17   JS2.A10    13A_F1         7
 2  129     17   JS2.A12    13A_F3         7
 2  130     17   JS2.A11    13A_F2         7
 2  131     17   JS2.A13    13A_F4         7
 2  132     17   JS2.B11    14A_F1         7
 2  133     17   JS2.B13    14A_F3         7
 2  134     17   JS2.B12    14A_F2         7
 2  135     17   JS2.B14    14A_F4         7
 2  136     18   JS2.A6     10A_P1         8
 2  137     18   JS2.A5     9A_P1          8
 2  138     18   JS2.A8     12A_P1         8
 2  139     18   JS2.A7     11A_P1         8
 2  140     18   JS2.B6     13A_P1         8
 2  141     18   JS2.B7     14A_P1         8
 2  142     18   JS2.B9     GND            8
 2  143     18   JS2.B8     15A_P1         8
 2  144     19   JS1.B38    10A_F2         9
 2  145     19   JS1.B37    10A_F1         9
 2  146     19   JS1.B40    10A_F4         9
 2  147     19   JS1.B39    10A_F3         9
 2  148     19   JS1.A37    9A_F3          9
 2  149     19   JS1.A33    9A_F4          9
 2  150     19   JS1.A39    9A_F1          9
 2  151     19   JS1.A38    9A_F2          9
 2  152     20   JS1.A45    11A_F3        10
 2  153     20   JS1.A44    11A_F4        10
 2  154     20   JS2.A3     11A_F1        10
 2  155     20   JS2.A2     11A_F2        10
 2  156     20   JS1.B46    12A_F2        10
 2  157     20   JS1.B45    12A_F1        10
 2  158     20   JS2.B4     12A_F4        10
 2  159     20   JS2.B3     12A_F3        10     
 3   160    21   JS3.B9     12B_F1         3
 3   161    21   JS3.B10    12B_F2         3
 3   162    21   JS3.B11    12B_F3         3
 3   163    21   JS3.B12    12B_F4         3
 3   164    21   JS3.A8     11B_F4         3
 3   165    21   JS3.A10    11B_F2         3
 3   166    21   JS3.A9     11B_F3         3
 3   167    21   JS3.A11    11B_F1         3
 3   168    22   JS3.B4     10B_F4         4
 3   169    22   JS2.B46    10B_F2         4
 3   170    22   JS3.B3     10B_F3         4
 3   171    22   JS2.B45    10B_F1         4
 3   172    22   JS3.A3     9B_F4          4
 3   173    22   JS2.A45    9B_F2          4
 3   174    22   JS3.A2     9B_F3          4
 3   175    22   JS2.A44    9B_F1          4
 3   176    23   JS2.B42    7B_P1          5
 3   177    23   JS2.B43    8B_P1          5
 3   178    23   JS2.B41    6B_P1          5
 3   179    23   JS2.B40    5B_P1          5
 3   180    23   JS2.A41    3B_P1          5
 3   181    23   JS2.A42    4B_P1          5
 3   182    23   JS2.A39    1B_P1          5
 3   183    23   JS2.A40    2B_P1          5
 3   184    24   JS2.A25    15B_B2         6
 3   185    24   JS2.A26    15B_B1         6
 3   186    24   JS2.A23    15B_B4         6
 3   187    24   JS2.A24    15B_B3         6
 3   188    24   JS2.B26    GND            6
 3   189    24   JS2.B27    GND            6
 3   190    24   JS2.B24    GND            6
 3   191    24   JS2.B25    GND            6
 3   192    25   JS2.B37    13B_F3         7
 3   193    25   JS2.B38    13B_F4         7
 3   194    25   JS2.B32    13B_F1         7
 3   195    25   JS2.B33    13B_F2         7
 3   196    25   JS2.A33    14B_F3         7
 3   197    25   JS2.A37    14B_F4         7
 3   198    25   JS2.A31    14B_F1         7
 3   199    25   JS2.A32    14B_F2         7
 3   200    26   JS2.D23    9B_B1          8
 3   201    26   JS2.D25    11B_B1         8
 3   202    26   JS2.D24    10B_B1         8
 3   203    26   JS2.D26    12B_B1         8
 3   204    26   JS2.E24    13B_B1         8
 3   205    26   JS2.E25    14B_B1         8
 3   206    26   JS2.E26    GND            8
 3   207    26   JS2.E27    GND            8
 3   208    27   JS2.D31    4B_B1          9
 3   209    27   JS2.D29    2B_B1          9
 3   210    27   JS2.D30    3B_B1          9
 3   211    27   JS2.D28    1B_B1          9
 3   212    27   JS2.E32    8B_B1          9
 3   213    27   JS2.E30    6B_B1          9
 3   214    27   JS2.E31    7B_B1          9
 3   215    27   JS2.E29    5B_B1          9
 3   216    28   JS2.D38    1B_M3         10
 3   217    28   JS2.D39    1B_M4         10
 3   218    28   JS2.D33    1B_M1         10
 3   219    28   JS2.D37    1B_M2         10
 3   220    28   JS2.E40    2B_M4         10
 3   221    28   JS2.E39    2B_M3         10
 3   222    28   JS2.E37    2B_M1         10
 3   223    28   JS2.E38    2B_M2         10
 3   224    29   JS3.E8     6B_M3         11
 3   225    29   JS3.E9     6B_M4         11
 3   226    29   JS3.E6     6B_M1         11
 3   227    29   JS3.E7     6B_M2         11
 3   228    29   JS3.D7     5B_M3         11
 3   229    29   JS3.D8     5B_M4         11
 3   230    29   JS3.D5     5B_M1         11
 3   231    29   JS3.D6     5B_M2         11
 3   232    30   JS3.D2     3B_M3         12
 3   233    30   JS3.D3     3B_M4         12
 3   234    30   JS2.D44    3B_M1         12
 3   235    30   JS2.D45    3B_M2         12
 3   236    30   JS3.E3     4B_M3         12
 3   237    30   JS3.E4     4B_M4         12
 3   238    30   JS2.E45    4B_M1         12
 3   239    30   JS2.E46    4B_M2         12
 4  240     31   JS3.E17    8B_M4          1
 4  241     31   JS3.E16    8B_M3          1
 4  242     31   JS3.E15    8B_M2          1
 4  243     31   JS3.E14    8B_M1          1
 4  244     31   JS3.D16    7B_M4          1
 4  245     31   JS3.D14    7B_M2          1
 4  246     31   JS3.D15    7B_M3          1
 4  247     31   JS3.D13    7B_M1          1
 4  248     32   JS3.E19    10B_M1         2
 4  249     32   JS3.E21    10B_M3         2
 4  250     32   JS3.E20    10B_M2         2
 4  251     32   JS3.E22    10B_M4         2
 4  252     32   JS3.D18    9B_M1          2
 4  253     32   JS3.D20    9B_M3          2
 4  254     32   JS3.D19    9B_M2          2
 4  255     32   JS3.D21    9B_M4          2
 4  256     33   JS3.E28    12B_M3         3
 4  257     33   JS3.E27    12B_M4         3
 4  258     33   JS3.E29    12B_M2         3
 4  259     33   JS3.E30    12B_M1         3
 4  260     33   JS3.D27    11B_M3         3
 4  261     33   JS3.D26    11B_M4         3
 4  262     33   JS3.D29    11B_M1         3
 4  263     33   JS3.D28    11B_M2         3
 4  264     34   JS3.D43    GND            4
 4  265     34   JS3.D42    GND            4
 4  266     34   JS3.D45    GND            4
 4  267     34   JS3.D44    GND            4
 4  268     34   JS3.E44    GND            4
 4  269     34   JS3.E43    GND            4
 4  270     34   JS3.E46    GND            4
 4  271     34   JS3.E45    GND            4
 4  272     35   JS3.E33    14B_M2         5
 4  273     35   JS3.E32    14B_M1         5
 4  274     35   JS3.E38    14B_M4         5
 4  275     35   JS3.E37    14B_M3         5
 4  276     35   JS3.D32    13B_M2         5
 4  277     35   JS3.D31    13B_M1         5
 4  278     35   JS3.D37    13B_M4         5
 4  279     35   JS3.D33    13B_M3         5
 4  280     36   JS3.A45    2B_F4          6
 4  281     36   JS3.A43    2B_F2          6
 4  282     36   JS3.A44    2B_F3          6
 4  283     36   JS3.A42    2B_F1          6
 4  284     36   JS3.B46    1B_F1          6
 4  285     36   JS3.B45    1B_F2          6
 4  286     36   JS3.B44    1B_F3          6
 4  287     36   JS3.B43    1B_F4          6
 4  288     37   JS3.A31    4B_F1          7
 4  289     37   JS3.A33    4B_F3          7
 4  290     37   JS3.A32    4B_F2          7
 4  291     37   JS3.A37    4B_F4          7
 4  292     37   JS3.B32    3B_F4          7
 4  293     37   JS3.B37    3B_F2          7
 4  294     37   JS3.B33    3B_F3          7
 4  295     37   JS3.B38    3B_F1          7
 4  296     38   JS3.A27    10B_P1         8
 4  297     38   JS3.A26    9B_P1          8
 4  298     38   JS3.A29    12B_P1         8
 4  299     38   JS3.A28    11B_P1         8
 4  300     38   JS3.B27    13B_P1         8
 4  301     38   JS3.B28    14B_P1         8
 4  302     38   JS3.B30    GND            8
 4  303     38   JS3.B29    15B_P1         8
 4  304     39   JS3.B15    7B_F3          9
 4  305     39   JS3.B14    7B_F4          9
 4  306     39   JS3.B17    7B_F1          9
 4  307     39   JS3.B16    7B_F2          9
 4  308     39   JS3.A14    8B_F2          9
 4  309     39   JS3.A13    8B_F1          9
 4  310     39   JS3.A16    8B_F4          9
 4  311     39   JS3.A15    8B_F3          9
 4  312     40   JS3.A22    6B_F2         10
 4  313     40   JS3.A21    6B_F1         10
 4  314     40   JS3.A24    6B_F4         10
 4  315     40   JS3.A23    6B_F3         10
 4  316     40   JS3.B23    5B_F3         10
 4  317     40   JS3.B22    5B_F4         10
 4  318     40   JS3.B25    5B_F1         10
 4  319     40   JS3.B24    5B_F2         10